Assessment 1
…
#install.packages("tidyverse")
library(tidyverse)
library(knitr)
library(tidyr)
library(dplyr)
library(skimr)

Task-8

fastfood %>%
  filter(calories >= 1000) %>%
  arrange(calories)

## # A tibble: 32 x 18
##     ...1 restaurant  item           calories cal_fat total_fat sat_fat trans_fat
##    <dbl> <chr>       <chr>             <dbl>   <dbl>     <dbl>   <dbl>     <dbl>
##  1   115 Sonic       Buffalo Dunke~     1000     550        61      12       0.5
##  2   194 Burger King Bacon & Swiss~     1000     585        65      24       3  
##  3   263 Dairy Queen 1/2 lb. Flame~     1000     660        74      26       2  
##  4   312 Subway      Footlong Big ~     1000     300        34      18       2  
##  5   176 Arbys       Triple Decker~     1030     459        51      17       1  
##  6   270 Dairy Queen 4 Piece Chick~     1030     480        53       9       1  
##  7   197 Burger King Bacon King         1040     630        48      28       2.5
##  8   281 Dairy Queen Large Cheese ~     1050     670        75      43       1  
##  9   122 Sonic       4 Piece Super~     1080     460        51       9       1  
## 10   199 Burger King BBQ Bacon King     1100     675        75      29       3  
## # ... with 22 more rows, and 10 more variables: cholesterol <dbl>,
## #   sodium <dbl>, total_carb <dbl>, fiber <dbl>, sugar <dbl>, protein <dbl>,
## #   vit_a <dbl>, vit_c <dbl>, calcium <dbl>, salad <chr>
…
class(fastfood$item)

## [1] "character"

fastfood$item <- as_factor(fastfood$item)

fastfood %>%
  mutate(item = fct_lump(item, n = 10)) %>%
  count(item)

## # A tibble: 505 x 2
##    item                                          n
##    <fct>                                     <int>
##  1 Artisan Grilled Chicken Sandwich              1
##  2 Single Bacon Smokehouse Burger                1
##  3 Double Bacon Smokehouse Burger                1
##  4 Grilled Bacon Smokehouse Chicken Sandwich     1
##  5 Crispy Bacon Smokehouse Chicken Sandwich      1
##  6 Big Mac                                       1
##  7 Cheeseburger                                  2
##  8 Classic Chicken Sandwich                      1
##  9 Double Cheeseburger                           2
## 10 Double Quarter Pounder with Cheese           1
## # ... with 495 more rows
…
